{
  "swagger": "2.0",
  "info": {
    "description": "Documentação da API Allied Autenticação Externa.",
    "version": "1.0.0",
    "title": "API Allied Autenticação Externa"
  },
  "host": "mgrall.com",
  "basePath": "/auth-ext",
  "tags": [
    {
      "name": "Autenticação",
      "description": "Endpoints para autenticação"
    }
  ],
  "schemes": [
    "https"
  ],
  "paths": {
    "/accesstoken": {
      "post": {
        "tags": [
          "Autenticação"
        ],
        "summary": "Obtain accesstoken",
        "consumes": [
          "application/json"
        ],
        "produces": [
          "application/json"
        ],
        "parameters": [
          {
            "in": "body",
            "name": "body",
            "required": true,
            "schema": {
              "$ref": "#/definitions/accessToken"
            }
          }
        ],
        "responses": {
          "400": {
            "description": "bad request"
          }
        }
      }
    },
    "/checktoken": {
      "get": {
        "tags": [
          "Autenticação"
        ],
        "summary": "Check accesstoken",
        "consumes": [
          "application/json"
        ],
        "produces": [
          "application/json"
        ],
        "parameters": [
          {
            "in": "header",
            "name": "x-access-token",
            "required": true,
            "type": "string"
          }
        ],
        "responses": {
          "400": {
            "description": "bad request"
          }
        }
      }
    }
  },
  "definitions": {
    "accessToken": {
      "type": "object",
      "properties": {
        "user": {
          "type": "string"
        },
        "password": {
          "type": "string"
        }
      }
    }
  }
}